{
    "releases": [
        {
            "name": "1.31.0",
            "created_at": "2025-02-06"
        },
        {
            "name": "1.30.1",
            "created_at": "2024-12-19"
        },
        {
            "name": "1.30.0",
            "created_at": "2024-12-17"
        },
        {
            "name": "1.29.3",
            "created_at": "2024-11-24"
        },
        {
            "name": "1.29.2",
            "created_at": "2024-11-15"
        },
        {
            "name": "1.29.1",
            "created_at": "2024-11-13"
        },
        {
            "name": "1.29.0",
            "created_at": "2024-11-13"
        },
        {
            "name": "1.28.0",
            "created_at": "2024-10-02"
        },
        {
            "name": "1.27.2",
            "created_at": "2024-09-05"
        },
        {
            "name": "1.27.1",
            "created_at": "2024-09-04"
        },
        {
            "name": "1.27.0",
            "created_at": "2024-09-03"
        },
        {
            "name": "1.26.1",
            "created_at": "2024-07-11"
        },
        {
            "name": "1.26.0",
            "created_at": "2024-07-11"
        },
        {
            "name": "1.25.2",
            "created_at": "2024-06-25"
        },
        {
            "name": "1.25.1",
            "created_at": "2024-05-30"
        },
        {
            "name": "1.25.0",
            "created_at": "2024-05-28"
        },
        {
            "name": "1.24.2",
            "created_at": "2024-04-12"
        },
        {
            "name": "1.24.1",
            "created_at": "2024-04-11"
        },
        {
            "name": "1.24.0",
            "created_at": "2024-04-10"
        },
        {
            "name": "1.23.2",
            "created_at": "2024-03-14"
        },
        {
            "name": "1.23.1",
            "created_at": "2024-03-13"
        },
        {
            "name": "1.23.0",
            "created_at": "2024-03-06"
        },
        {
            "name": "1.22.3",
            "created_at": "2024-02-05"
        },
        {
            "name": "1.22.2",
            "created_at": "2024-01-11"
        },
        {
            "name": "1.22.1",
            "created_at": "2023-12-21"
        },
        {
            "name": "1.22.0",
            "created_at": "2023-12-20"
        },
        {
            "name": "1.21.2",
            "created_at": "2023-10-26"
        },
        {
            "name": "1.21.1",
            "created_at": "2023-10-25"
        },
        {
            "name": "1.21.0",
            "created_at": "2023-10-25"
        },
        {
            "name": "1.20.2",
            "created_at": "2023-09-14"
        },
        {
            "name": "1.20.1",
            "created_at": "2023-09-13"
        },
        {
            "name": "1.20.0",
            "created_at": "2023-09-12"
        },
        {
            "name": "1.19.1",
            "created_at": "2023-07-20"
        },
        {
            "name": "1.19.0",
            "created_at": "2023-07-18"
        },
        {
            "name": "1.18.0",
            "created_at": "2023-06-14"
        },
        {
            "name": "1.17.2",
            "created_at": "2023-05-22"
        },
        {
            "name": "1.17.1",
            "created_at": "2023-05-16"
        },
        {
            "name": "1.17.0",
            "created_at": "2023-05-15"
        },
        {
            "name": "1.16.1-rc1",
            "created_at": "2023-04-05"
        },
        {
            "name": "1.16.0",
            "created_at": "2023-04-04"
        },
        {
            "name": "1.15.2",
            "created_at": "2023-03-13"
        },
        {
            "name": "1.15.1",
            "created_at": "2023-03-09"
        },
        {
            "name": "1.15.0",
            "created_at": "2023-03-08"
        },
        {
            "name": "(2023-01-18_1.14.0)",
            "created_at": "2023-02-10"
        },
        {
            "name": "(2022-12-22_1.13.3)",
            "created_at": "2023-02-10"
        },
        {
            "name": "(2022-12-8_1.13.2)",
            "created_at": "2023-02-10"
        },
        {
            "name": "(2022-11-22_1.13.1)",
            "created_at": "2023-02-10"
        },
        {
            "name": "(2022-11-02_1.13.0)",
            "created_at": "2023-02-10"
        },
        {
            "name": "(2022-09-20_1.12.1)",
            "created_at": "2023-02-10"
        },
        {
            "name": "(2022-09-07_1.12.0)",
            "created_at": "2023-02-10"
        },
        {
            "name": "(2022-07-27_1.11.0)",
            "created_at": "2023-02-10"
        },
        {
            "name": "(2022-07-05_1.10.2)",
            "created_at": "2023-02-10"
        },
        {
            "name": "(2022-06-09_1.10.1)",
            "created_at": "2023-02-10"
        },
        {
            "name": "(2022-10-05_1.10.0)",
            "created_at": "2023-02-10"
        },
        {
            "name": "(2022-10-05_1.10.0)",
            "created_at": "2023-02-10"
        },
        {
            "name": "(2022-03-03_1.9.1)",
            "created_at": "2023-02-10"
        },
        {
            "name": "(2022-03-02_1.9)",
            "created_at": "2023-02-10"
        },
        {
            "name": "(2022-01-13_1.8.2)",
            "created_at": "2023-02-10"
        },
        {
            "name": "(2022-01-13_1.8.1)",
            "created_at": "2023-02-10"
        },
        {
            "name": "(2022-01-13)",
            "created_at": "2023-02-10"
        },
        {
            "name": "(2021-11-25)",
            "created_at": "2023-02-10"
        },
        {
            "name": "(2021-11-24)",
            "created_at": "2023-02-10"
        },
        {
            "name": "(2021-10-05)",
            "created_at": "2023-02-10"
        },
        {
            "name": "(2021-08-11)",
            "created_at": "2023-02-10"
        },
        {
            "name": "(2021-07-16)",
            "created_at": "2023-02-10"
        },
        {
            "name": "(2021-07-15)",
            "created_at": "2023-02-10"
        },
        {
            "name": "(2021-07-13)",
            "created_at": "2023-02-10"
        },
        {
            "name": "(2021-07-12)",
            "created_at": "2023-02-10"
        },
        {
            "name": "(2021-06-02)",
            "created_at": "2023-02-10"
        },
        {
            "name": "(2021-05-11)",
            "created_at": "2023-02-10"
        },
        {
            "name": "(2021-04-08)",
            "created_at": "2023-02-10"
        },
        {
            "name": "(2021-03-01)",
            "created_at": "2023-02-10"
        },
        {
            "name": "(2021-02-04)",
            "created_at": "2023-02-10"
        },
        {
            "name": "(2021-01-06)",
            "created_at": "2023-02-10"
        },
        {
            "name": "(2020-12-01)",
            "created_at": "2023-02-10"
        },
        {
            "name": "(2020-11-02)",
            "created_at": "2023-02-10"
        },
        {
            "name": "(2020-10-06)",
            "created_at": "2023-02-10"
        },
        {
            "name": "(2020-09-02)",
            "created_at": "2023-02-10"
        },
        {
            "name": "(2020-08-31)",
            "created_at": "2023-02-10"
        },
        {
            "name": "(2020-07-20)",
            "created_at": "2023-02-10"
        },
        {
            "name": "(2020-06-08)",
            "created_at": "2023-02-10"
        }
    ]
}